{
  "project_info": {
    "project_number": "814209501530",
    "firebase_url": "https://gc02proyecto.firebaseio.com",
    "project_id": "gc02proyecto",
    "storage_bucket": "gc02proyecto.appspot.com"
  },
  "client": [
    {
      "client_info": {
        "mobilesdk_app_id": "1:814209501530:android:29164da53734f9189f0b63",
        "android_client_info": {
          "package_name": "com.example.asee_gps_pokepin"
        }
      },
      "oauth_client": [
        {
          "client_id": "814209501530-dlqlblpfaaunjcm67m80g6qngnlkgmmt.apps.googleusercontent.com",
          "client_type": 1,
          "android_info": {
            "package_name": "com.example.asee_gps_pokepin",
            "certificate_hash": "6eebd0c0eb3ea0c9b75e41b449335a60119b15a0"
          }
        },
        {
          "client_id": "814209501530-c80af2vj2cp2v64hh1382rf1tvmlkb5q.apps.googleusercontent.com",
          "client_type": 1,
          "android_info": {
            "package_name": "com.example.asee_gps_pokepin",
            "certificate_hash": "3875a28fa682cb2db8d6e3b1a80d114520f66d64"
          }
        },
        {
          "client_id": "814209501530-vap18957f0bh734qgr3u1nhq77v23t27.apps.googleusercontent.com",
          "client_type": 1,
          "android_info": {
            "package_name": "com.example.asee_gps_pokepin",
            "certificate_hash": "3bb599b3bb8c5180bc2d08289d3e8bbaa47b255e"
          }
        },
        {
          "client_id": "814209501530-srdgtcqf5pmrq1isp7peiatrpbbnd3mt.apps.googleusercontent.com",
          "client_type": 3
        }
      ],
      "api_key": [
        {
          "current_key": "AIzaSyBn-i2GkJP3P90jOetJrw91o-hs2hWRW0Y"
        }
      ],
      "services": {
        "appinvite_service": {
          "other_platform_oauth_client": [
            {
              "client_id": "814209501530-srdgtcqf5pmrq1isp7peiatrpbbnd3mt.apps.googleusercontent.com",
              "client_type": 3
            }
          ]
        }
      }
    }
  ],
  "configuration_version": "1"
}